{
  "$schema": "https://themost-framework.github.io/themost/models/2018/2/schema.json",
  "@id": "https://themost.io/schemas/RequestScholarshipReview",
  "name": "RequestScholarshipReview",
  "title": "Review of a scholarship request",
  "abstract": false,
  "sealed": false,
  "hidden": true,
  "inherits": "Review",
  "version": "1.1",
  "fields": [
    {
      "name": "itemReviewed",
      "title": "Item reviewed",
      "editable": false,
      "nullable": false,
      "description": "The item that is being reviewed.",
      "type": "RequestScholarshipAction"
    }
  ],
  "privileges": [
    {
      "mask": 15,
      "type": "global"
    },
    {
      "mask": 15,
      "type": "global",
      "account": "Administrators"
    },
    {
      "mask": 15,
      "type": "global",
      "account": "ScholarshipAdmins"
    },
    {
      "mask": 15,
      "type": "self",
      "filter": "itemReviewed/scholarship/department eq departments()",
      "account": "Registrar",
      "scope": [
        "registrar"
      ]
    }
  ]
}
